<?xml version="1.0" encoding="UTF-8" standalone="no"?>
<!-- Created with Inkscape (http://www.inkscape.org/) -->
<svg
   xmlns:ns="http://creativecommons.org/ns#"
   xmlns:dc="http://purl.org/dc/elements/1.1/"
   xmlns:cc="http://web.resource.org/cc/"
   xmlns:rdf="http://www.w3.org/1999/02/22-rdf-syntax-ns#"
   xmlns:svg="http://www.w3.org/2000/svg"
   xmlns="http://www.w3.org/2000/svg"
   xmlns:sodipodi="http://sodipodi.sourceforge.net/DTD/sodipodi-0.dtd"
   xmlns:inkscape="http://www.inkscape.org/namespaces/inkscape"
   width="744.09448819"
   height="1052.3622047"
   id="svg2"
   sodipodi:version="0.32"
   inkscape:version="0.45.1"
   sodipodi:docname="minute_hand.svg"
   inkscape:output_extension="org.inkscape.output.svg.inkscape"
   sodipodi:docbase="/media/disk/clock">
  <defs
     id="defs4">
    <inkscape:perspective
       sodipodi:type="inkscape:persp3d"
       inkscape:vp_x="0 : 526.18109 : 1"
       inkscape:vp_y="0 : 1000 : 0"
       inkscape:vp_z="744.09448 : 526.18109 : 1"
       inkscape:persp3d-origin="372.04724 : 350.78739 : 1"
       id="perspective10" />
  </defs>
  <sodipodi:namedview
     id="base"
     pagecolor="#ffffff"
     bordercolor="#666666"
     borderopacity="1.0"
     gridtolerance="10000"
     guidetolerance="10"
     objecttolerance="10"
     inkscape:pageopacity="0.0"
     inkscape:pageshadow="2"
     inkscape:zoom="1.4"
     inkscape:cx="229.29615"
     inkscape:cy="208.2541"
     inkscape:document-units="px"
     inkscape:current-layer="layer1"
     showgrid="false"
     inkscape:snap-global="false"
     inkscape:window-width="1280"
     inkscape:window-height="947"
     inkscape:window-x="0"
     inkscape:window-y="0">
    <inkscape:grid
       type="xygrid"
       id="grid3167" />
  </sodipodi:namedview>
  <metadata
     id="metadata7">
    <rdf:RDF>
      <ns:Work
         rdf:about="">
        <dc:format>image/svg+xml</dc:format>
        <dc:type
           rdf:resource="http://purl.org/dc/dcmitype/StillImage" />
      </ns:Work>
      <cc:Work
         rdf:about="">
        <dc:format>image/svg+xml</dc:format>
        <dc:type
           rdf:resource="http://purl.org/dc/dcmitype/StillImage" />
      </cc:Work>
    </rdf:RDF>
  </metadata>
  <g
     inkscape:label="Layer 1"
     inkscape:groupmode="layer"
     id="layer1">
    <path
       style="fill:#000000;fill-opacity:0.99514561;stroke:#080000;stroke-width:0.34727806;stroke-miterlimit:4;stroke-dasharray:none;stroke-dashoffset:0;stroke-opacity:1"
       d="M 190.25,602.34375 C 190.25154,602.93921 190.25,603.52759 190.25,604.125 C 189.4214,642.73978 188.52255,682.28948 177.03125,719.4375 C 176.0131,721.6293 175.4375,724.08177 175.4375,726.65625 C 175.43749,735.14463 181.61584,742.16849 189.71875,743.53125 L 189.71875,1001.1875 C 181.61583,1002.5503 175.4375,1009.5741 175.4375,1018.0625 C 175.43749,1027.4411 182.96613,1035.0835 192.3125,1035.2188 L 192.3125,1021.75 C 190.37892,1021.6186 188.84375,1020.0292 188.84375,1018.0625 C 188.84375,1016.0958 190.37892,1014.5063 192.3125,1014.375 L 192.3125,602.34375 L 190.25,602.34375 z M 192.4375,602.34375 L 192.4375,1014.375 C 194.37108,1014.5063 195.90625,1016.0958 195.90625,1018.0625 C 195.90625,1020.0292 194.37108,1021.6186 192.4375,1021.75 L 192.4375,1035.2188 C 201.78387,1035.0835 209.31251,1027.4411 209.3125,1018.0625 C 209.3125,1009.5741 203.13417,1002.5503 195.03125,1001.1875 L 195.03125,743.53125 C 203.13416,742.16849 209.31251,735.14463 209.3125,726.65625 C 209.3125,724.08177 208.7369,721.6293 207.71875,719.4375 C 196.22745,682.28948 195.3286,642.73978 194.5,604.125 C 194.5,603.52759 194.49846,602.93921 194.5,602.34375 L 192.4375,602.34375 z "
       id="rect2383"
       sodipodi:insensitive="true" />
    <path
       style="fill:#000000;fill-opacity:0.99514561;stroke:#080000;stroke-width:0.34727806;stroke-miterlimit:4;stroke-dasharray:none;stroke-dashoffset:0;stroke-opacity:1"
       d="M 269.53125 602.59375 C 270.53463 639.65895 256.68469 709.19982 255.90625 711.75 C 255.55775 713.31679 254.90625 715.10409 254.59375 719.0625 C 253.92571 727.52454 258.0719 736.61011 267.4375 743.78125 L 268.1875 744.875 L 268.1875 1000.8438 L 267.4375 1000.8438 L 267.4375 1001.4375 C 259.33458 1002.8003 253.15625 1009.8241 253.15625 1018.3125 C 253.15624 1027.6911 260.68488 1035.3333 270.03125 1035.4688 L 270.03125 1035.4375 C 270.07347 1035.4425 270.11395 1035.4646 270.15625 1035.4688 C 270.18727 1035.4718 270.2189 1035.4683 270.25 1035.4688 C 270.2923 1035.4646 270.33278 1035.4425 270.375 1035.4375 L 270.375 1035.4688 C 279.72137 1035.3333 287.25002 1027.6911 287.25 1018.3125 C 287.25 1009.8241 281.07168 1002.8003 272.96875 1001.4375 L 272.96875 1000.8438 L 272.21875 1000.8438 L 272.21875 744.875 L 272.96875 743.78125 C 282.33435 736.61011 286.48053 727.52454 285.8125 719.0625 C 285.5 715.10409 284.81725 713.31679 284.46875 711.75 C 283.69031 709.19982 269.87163 639.65895 270.875 602.59375 L 270.375 602.59375 L 270.375 1014.625 C 272.30858 1014.7563 273.84376 1016.3458 273.84375 1018.3125 C 273.84375 1020.234 272.37062 1021.7754 270.5 1021.9688 L 270.5 1021.9375 C 270.41709 1021.9508 270.33492 1021.9855 270.25 1022 C 270.21944 1021.9979 270.18671 1022.0052 270.15625 1022 C 270.07133 1021.9855 269.98916 1021.9508 269.90625 1021.9375 L 269.90625 1021.9688 C 268.03294 1021.778 266.5625 1020.2359 266.5625 1018.3125 C 266.5625 1016.3458 268.09767 1014.7563 270.03125 1014.625 L 270.03125 602.59375 L 269.53125 602.59375 z "
       id="path2160" />
  </g>
</svg>
