<?xml version="1.0" encoding="UTF-8" standalone="no"?>
<!-- Created with Inkscape (http://www.inkscape.org/) -->
<svg
   xmlns:dc="http://purl.org/dc/elements/1.1/"
   xmlns:cc="http://creativecommons.org/ns#"
   xmlns:rdf="http://www.w3.org/1999/02/22-rdf-syntax-ns#"
   xmlns:svg="http://www.w3.org/2000/svg"
   xmlns="http://www.w3.org/2000/svg"
   xmlns:sodipodi="http://sodipodi.sourceforge.net/DTD/sodipodi-0.dtd"
   xmlns:inkscape="http://www.inkscape.org/namespaces/inkscape"
   width="744.09448819"
   height="1052.3622047"
   id="svg2"
   sodipodi:version="0.32"
   inkscape:version="0.46"
   sodipodi:docname="number_plate.svg"
   inkscape:output_extension="org.inkscape.output.svg.inkscape"
   inkscape:export-filename="/home/anru/projects/povray-scenes-git/clock/number_plate_1.png"
   inkscape:export-xdpi="269.93179"
   inkscape:export-ydpi="269.93179">
  <defs
     id="defs4">
    <inkscape:perspective
       sodipodi:type="inkscape:persp3d"
       inkscape:vp_x="0 : 526.18109 : 1"
       inkscape:vp_y="0 : 1000 : 0"
       inkscape:vp_z="744.09448 : 526.18109 : 1"
       inkscape:persp3d-origin="372.04724 : 350.78739 : 1"
       id="perspective10" />
  </defs>
  <sodipodi:namedview
     id="base"
     pagecolor="#ffffff"
     bordercolor="#666666"
     borderopacity="1.0"
     gridtolerance="10000"
     guidetolerance="10"
     objecttolerance="10"
     inkscape:pageopacity="0.0"
     inkscape:pageshadow="2"
     inkscape:zoom="2.8"
     inkscape:cx="385.50955"
     inkscape:cy="288.0587"
     inkscape:document-units="px"
     inkscape:current-layer="layer6"
     showgrid="false"
     inkscape:window-width="1280"
     inkscape:window-height="972"
     inkscape:window-x="0"
     inkscape:window-y="0"
     showguides="true"
     inkscape:guide-bbox="true">
    <inkscape:grid
       type="xygrid"
       id="grid3274" />
  </sodipodi:namedview>
  <metadata
     id="metadata7">
    <rdf:RDF>
      <cc:Work
         rdf:about="">
        <dc:format>image/svg+xml</dc:format>
        <dc:type
           rdf:resource="http://purl.org/dc/dcmitype/StillImage" />
      </cc:Work>
    </rdf:RDF>
  </metadata>
  <g
     inkscape:label="Layer 1"
     inkscape:groupmode="layer"
     id="layer1"
     style="display:inline"
     sodipodi:insensitive="true">
    <flowRoot
       xml:space="preserve"
       id="flowRoot2383"
       style="font-size:40px;font-style:normal;font-variant:normal;font-weight:normal;font-stretch:normal;fill:#000000;fill-opacity:1;stroke:none;stroke-width:1px;stroke-linecap:butt;stroke-linejoin:miter;stroke-opacity:1;font-family:Nimbus Sans L;-inkscape-font-specification:Nimbus Sans L"><flowRegion
         id="flowRegion2385"><rect
           id="rect2387"
           width="57.142857"
           height="130"
           x="318.57144"
           y="132.36218"
           style="font-style:normal;font-variant:normal;font-weight:normal;font-stretch:normal;font-family:Nimbus Sans L;-inkscape-font-specification:Nimbus Sans L" /></flowRegion><flowPara
         id="flowPara2389" /></flowRoot>    <path
       sodipodi:type="arc"
       id="path2439"
       sodipodi:cx="457.85715"
       sodipodi:cy="518.79077"
       sodipodi:rx="269.28571"
       sodipodi:ry="269.28571"
       d="M 727.14285,518.79077 A 269.28571,269.28571 0 1 1 188.57144,518.79077 A 269.28571,269.28571 0 1 1 727.14285,518.79077 z"
       style="fill:#fdfef1;fill-opacity:1"
       transform="translate(-65.271442,31.785706)" />
    <g
       id="g3276">
      <path
         transform="matrix(0.915564,0,0,0.915564,-26.611802,75.590339)"
         style="fill:#666666;fill-opacity:0.02985074;stroke:#000000;stroke-opacity:0.8756219"
         d="M 727.14285,518.79077 A 269.28571,269.28571 0 1 1 188.57144,518.79077 A 269.28571,269.28571 0 1 1 727.14285,518.79077 z"
         sodipodi:ry="269.28571"
         sodipodi:rx="269.28571"
         sodipodi:cy="518.79077"
         sodipodi:cx="457.85715"
         id="path3272"
         sodipodi:type="arc" />
      <path
         sodipodi:type="arc"
         id="path3270"
         sodipodi:cx="457.85715"
         sodipodi:cy="518.79077"
         sodipodi:rx="269.28571"
         sodipodi:ry="269.28571"
         d="M 727.14285,518.79077 A 269.28571,269.28571 0 1 1 188.57144,518.79077 A 269.28571,269.28571 0 1 1 727.14285,518.79077 z"
         style="fill:#666666;fill-opacity:0.02985074;stroke:#000000;stroke-opacity:0.8756219"
         transform="matrix(0.9438358,0,0,0.9438358,-39.556279,60.923155)" />
    </g>
    <path
       style="fill:#666666;fill-opacity:0.02985074;stroke:#000000;stroke-width:0.89903575;stroke-miterlimit:4;stroke-dasharray:none;stroke-opacity:0.8756219"
       d=""
       id="path3286" />
  </g>
  <g
     inkscape:groupmode="layer"
     id="layer2"
     inkscape:label="number"
     style="display:inline"
     sodipodi:insensitive="true">
    <g
       id="g3364"
       transform="matrix(0.9135454,-0.4067366,0.4067366,0.9135454,-393.01072,-553.73414)"
       style="fill:#030000;fill-opacity:1;stroke:#080000;stroke-width:3.75000024;stroke-miterlimit:4;stroke-dasharray:none;stroke-opacity:1">
      <g
         id="g3366"
         style="fill:#030000;fill-opacity:1;stroke:#080000;stroke-width:3.75000024;stroke-miterlimit:4;stroke-dasharray:none;stroke-opacity:1">
        <path
           style="fill:#030000;fill-opacity:1;fill-rule:evenodd;stroke:#080000;stroke-width:3.75000024;stroke-linecap:butt;stroke-linejoin:miter;stroke-miterlimit:4;stroke-dasharray:none;stroke-opacity:1"
           d="M 268.57143,835.6566 L 268.57143,1821.1259"
           id="path3368" />
        <path
           id="path3370"
           d="M 761.30608,1328.3912 L -224.16322,1328.3912"
           style="fill:#030000;fill-opacity:1;fill-rule:evenodd;stroke:#080000;stroke-width:3.75000024;stroke-linecap:butt;stroke-linejoin:miter;stroke-miterlimit:4;stroke-dasharray:none;stroke-opacity:1" />
      </g>
      <g
         transform="matrix(0.8660254,0.5,-0.5,0.8660254,700.17737,43.684966)"
         id="g3372"
         style="fill:#030000;fill-opacity:1;stroke:#080000;stroke-width:3.75000024;stroke-miterlimit:4;stroke-dasharray:none;stroke-opacity:1">
        <path
           id="path3374"
           d="M 268.57143,835.6566 L 268.57143,1821.1259"
           style="fill:#030000;fill-opacity:1;fill-rule:evenodd;stroke:#080000;stroke-width:3.75000024;stroke-linecap:butt;stroke-linejoin:miter;stroke-miterlimit:4;stroke-dasharray:none;stroke-opacity:1" />
        <path
           style="fill:#030000;fill-opacity:1;fill-rule:evenodd;stroke:#080000;stroke-width:3.75000024;stroke-linecap:butt;stroke-linejoin:miter;stroke-miterlimit:4;stroke-dasharray:none;stroke-opacity:1"
           d="M 761.30608,1328.3912 L -224.16322,1328.3912"
           id="path3376" />
      </g>
      <g
         id="g3378"
         transform="matrix(0.5,0.8660254,-0.8660254,0.5,1284.7063,431.60593)"
         style="fill:#030000;fill-opacity:1;stroke:#080000;stroke-width:3.75000024;stroke-miterlimit:4;stroke-dasharray:none;stroke-opacity:1">
        <path
           style="fill:#030000;fill-opacity:1;fill-rule:evenodd;stroke:#080000;stroke-width:3.75000024;stroke-linecap:butt;stroke-linejoin:miter;stroke-miterlimit:4;stroke-dasharray:none;stroke-opacity:1"
           d="M 268.57143,835.6566 L 268.57143,1821.1259"
           id="path3380" />
        <path
           id="path3382"
           d="M 761.30608,1328.3912 L -224.16322,1328.3912"
           style="fill:#030000;fill-opacity:1;fill-rule:evenodd;stroke:#080000;stroke-width:3.75000024;stroke-linecap:butt;stroke-linejoin:miter;stroke-miterlimit:4;stroke-dasharray:none;stroke-opacity:1" />
      </g>
    </g>
    <g
       id="g2461"
       transform="translate(124.07545,-777.81746)"
       style="fill:#030000;fill-opacity:1;stroke:#080000;stroke-width:7.5;stroke-miterlimit:4;stroke-dasharray:none;stroke-opacity:1">
      <g
         id="g2445"
         style="fill:#030000;fill-opacity:1;stroke:#080000;stroke-width:7.5;stroke-miterlimit:4;stroke-dasharray:none;stroke-opacity:1">
        <path
           style="fill:#030000;fill-opacity:1;fill-rule:evenodd;stroke:#080000;stroke-width:7.5;stroke-linecap:butt;stroke-linejoin:miter;stroke-miterlimit:4;stroke-dasharray:none;stroke-opacity:1"
           d="M 268.57143,835.6566 L 268.57143,1821.1259"
           id="path2441" />
        <path
           id="path2443"
           d="M 761.30608,1328.3912 L -224.16322,1328.3912"
           style="fill:#030000;fill-opacity:1;fill-rule:evenodd;stroke:#080000;stroke-width:7.5;stroke-linecap:butt;stroke-linejoin:miter;stroke-miterlimit:4;stroke-dasharray:none;stroke-opacity:1" />
      </g>
      <g
         transform="matrix(0.8660254,0.5,-0.5,0.8660254,700.17737,43.684966)"
         id="g2449"
         style="fill:#030000;fill-opacity:1;stroke:#080000;stroke-width:7.5;stroke-miterlimit:4;stroke-dasharray:none;stroke-opacity:1">
        <path
           id="path2451"
           d="M 268.57143,835.6566 L 268.57143,1821.1259"
           style="fill:#030000;fill-opacity:1;fill-rule:evenodd;stroke:#080000;stroke-width:7.5;stroke-linecap:butt;stroke-linejoin:miter;stroke-miterlimit:4;stroke-dasharray:none;stroke-opacity:1" />
        <path
           style="fill:#030000;fill-opacity:1;fill-rule:evenodd;stroke:#080000;stroke-width:7.5;stroke-linecap:butt;stroke-linejoin:miter;stroke-miterlimit:4;stroke-dasharray:none;stroke-opacity:1"
           d="M 761.30608,1328.3912 L -224.16322,1328.3912"
           id="path2453" />
      </g>
      <g
         id="g2455"
         transform="matrix(0.5,0.8660254,-0.8660254,0.5,1284.7063,431.60593)"
         style="fill:#030000;fill-opacity:1;stroke:#080000;stroke-width:7.5;stroke-miterlimit:4;stroke-dasharray:none;stroke-opacity:1">
        <path
           style="fill:#030000;fill-opacity:1;fill-rule:evenodd;stroke:#080000;stroke-width:7.5;stroke-linecap:butt;stroke-linejoin:miter;stroke-miterlimit:4;stroke-dasharray:none;stroke-opacity:1"
           d="M 268.57143,835.6566 L 268.57143,1821.1259"
           id="path2457" />
        <path
           id="path2459"
           d="M 761.30608,1328.3912 L -224.16322,1328.3912"
           style="fill:#030000;fill-opacity:1;fill-rule:evenodd;stroke:#080000;stroke-width:7.5;stroke-linecap:butt;stroke-linejoin:miter;stroke-miterlimit:4;stroke-dasharray:none;stroke-opacity:1" />
      </g>
    </g>
    <g
       style="fill:#030000;fill-opacity:1;stroke:#080000;stroke-width:3.75;stroke-miterlimit:4;stroke-dasharray:none;stroke-opacity:1"
       transform="matrix(0.9945219,-0.1045285,0.1045285,0.9945219,-13.307984,-742.46703)"
       id="g3304">
      <g
         style="fill:#030000;fill-opacity:1;stroke:#080000;stroke-width:3.75;stroke-miterlimit:4;stroke-dasharray:none;stroke-opacity:1"
         id="g3306">
        <path
           id="path3308"
           d="M 268.57143,835.6566 L 268.57143,1821.1259"
           style="fill:#030000;fill-opacity:1;fill-rule:evenodd;stroke:#080000;stroke-width:3.75;stroke-linecap:butt;stroke-linejoin:miter;stroke-miterlimit:4;stroke-dasharray:none;stroke-opacity:1" />
        <path
           style="fill:#030000;fill-opacity:1;fill-rule:evenodd;stroke:#080000;stroke-width:3.75;stroke-linecap:butt;stroke-linejoin:miter;stroke-miterlimit:4;stroke-dasharray:none;stroke-opacity:1"
           d="M 761.30608,1328.3912 L -224.16322,1328.3912"
           id="path3310" />
      </g>
      <g
         style="fill:#030000;fill-opacity:1;stroke:#080000;stroke-width:3.75;stroke-miterlimit:4;stroke-dasharray:none;stroke-opacity:1"
         id="g3312"
         transform="matrix(0.8660254,0.5,-0.5,0.8660254,700.17737,43.684966)">
        <path
           style="fill:#030000;fill-opacity:1;fill-rule:evenodd;stroke:#080000;stroke-width:3.75;stroke-linecap:butt;stroke-linejoin:miter;stroke-miterlimit:4;stroke-dasharray:none;stroke-opacity:1"
           d="M 268.57143,835.6566 L 268.57143,1821.1259"
           id="path3314" />
        <path
           id="path3316"
           d="M 761.30608,1328.3912 L -224.16322,1328.3912"
           style="fill:#030000;fill-opacity:1;fill-rule:evenodd;stroke:#080000;stroke-width:3.75;stroke-linecap:butt;stroke-linejoin:miter;stroke-miterlimit:4;stroke-dasharray:none;stroke-opacity:1" />
      </g>
      <g
         style="fill:#030000;fill-opacity:1;stroke:#080000;stroke-width:3.75;stroke-miterlimit:4;stroke-dasharray:none;stroke-opacity:1"
         transform="matrix(0.5,0.8660254,-0.8660254,0.5,1284.7063,431.60593)"
         id="g3318">
        <path
           id="path3320"
           d="M 268.57143,835.6566 L 268.57143,1821.1259"
           style="fill:#030000;fill-opacity:1;fill-rule:evenodd;stroke:#080000;stroke-width:3.75;stroke-linecap:butt;stroke-linejoin:miter;stroke-miterlimit:4;stroke-dasharray:none;stroke-opacity:1" />
        <path
           style="fill:#030000;fill-opacity:1;fill-rule:evenodd;stroke:#080000;stroke-width:3.75;stroke-linecap:butt;stroke-linejoin:miter;stroke-miterlimit:4;stroke-dasharray:none;stroke-opacity:1"
           d="M 761.30608,1328.3912 L -224.16322,1328.3912"
           id="path3322" />
      </g>
    </g>
    <g
       id="g3324"
       transform="matrix(0.9781476,-0.2079117,0.2079117,0.9781476,-146.24369,-692.94977)"
       style="fill:#030000;fill-opacity:1;stroke:#080000;stroke-width:3.75;stroke-miterlimit:4;stroke-dasharray:none;stroke-opacity:1">
      <g
         id="g3326"
         style="fill:#030000;fill-opacity:1;stroke:#080000;stroke-width:3.75;stroke-miterlimit:4;stroke-dasharray:none;stroke-opacity:1">
        <path
           style="fill:#030000;fill-opacity:1;fill-rule:evenodd;stroke:#080000;stroke-width:3.75;stroke-linecap:butt;stroke-linejoin:miter;stroke-miterlimit:4;stroke-dasharray:none;stroke-opacity:1"
           d="M 268.57143,835.6566 L 268.57143,1821.1259"
           id="path3328" />
        <path
           id="path3330"
           d="M 761.30608,1328.3912 L -224.16322,1328.3912"
           style="fill:#030000;fill-opacity:1;fill-rule:evenodd;stroke:#080000;stroke-width:3.75;stroke-linecap:butt;stroke-linejoin:miter;stroke-miterlimit:4;stroke-dasharray:none;stroke-opacity:1" />
      </g>
      <g
         transform="matrix(0.8660254,0.5,-0.5,0.8660254,700.17737,43.684966)"
         id="g3332"
         style="fill:#030000;fill-opacity:1;stroke:#080000;stroke-width:3.75;stroke-miterlimit:4;stroke-dasharray:none;stroke-opacity:1">
        <path
           id="path3334"
           d="M 268.57143,835.6566 L 268.57143,1821.1259"
           style="fill:#030000;fill-opacity:1;fill-rule:evenodd;stroke:#080000;stroke-width:3.75;stroke-linecap:butt;stroke-linejoin:miter;stroke-miterlimit:4;stroke-dasharray:none;stroke-opacity:1" />
        <path
           style="fill:#030000;fill-opacity:1;fill-rule:evenodd;stroke:#080000;stroke-width:3.75;stroke-linecap:butt;stroke-linejoin:miter;stroke-miterlimit:4;stroke-dasharray:none;stroke-opacity:1"
           d="M 761.30608,1328.3912 L -224.16322,1328.3912"
           id="path3336" />
      </g>
      <g
         id="g3338"
         transform="matrix(0.5,0.8660254,-0.8660254,0.5,1284.7063,431.60593)"
         style="fill:#030000;fill-opacity:1;stroke:#080000;stroke-width:3.75;stroke-miterlimit:4;stroke-dasharray:none;stroke-opacity:1">
        <path
           style="fill:#030000;fill-opacity:1;fill-rule:evenodd;stroke:#080000;stroke-width:3.75;stroke-linecap:butt;stroke-linejoin:miter;stroke-miterlimit:4;stroke-dasharray:none;stroke-opacity:1"
           d="M 268.57143,835.6566 L 268.57143,1821.1259"
           id="path3340" />
        <path
           id="path3342"
           d="M 761.30608,1328.3912 L -224.16322,1328.3912"
           style="fill:#030000;fill-opacity:1;fill-rule:evenodd;stroke:#080000;stroke-width:3.75;stroke-linecap:butt;stroke-linejoin:miter;stroke-miterlimit:4;stroke-dasharray:none;stroke-opacity:1" />
      </g>
    </g>
    <g
       id="g3346"
       style="fill:#030000;fill-opacity:1;stroke:#080000;stroke-width:3.50234818;stroke-miterlimit:4;stroke-dasharray:none;stroke-opacity:1"
       transform="matrix(1.0183059,-0.3308677,0.3308677,1.0183059,-320.36272,-713.27332)">
      <path
         style="fill:#030000;fill-opacity:1;fill-rule:evenodd;stroke:#080000;stroke-width:3.50234818;stroke-linecap:butt;stroke-linejoin:miter;stroke-miterlimit:4;stroke-dasharray:none;stroke-opacity:1"
         d="M 268.57143,835.6566 L 268.57143,1821.1259"
         id="path3348" />
      <path
         id="path3350"
         d="M 761.30608,1328.3912 L -224.16322,1328.3912"
         style="fill:#030000;fill-opacity:1;fill-rule:evenodd;stroke:#080000;stroke-width:3.50234818;stroke-linecap:butt;stroke-linejoin:miter;stroke-miterlimit:4;stroke-dasharray:none;stroke-opacity:1" />
    </g>
    <g
       transform="matrix(1.0473126,0.2226131,-0.2226131,1.0473126,407.08597,-900.45474)"
       id="g3352"
       style="fill:#030000;fill-opacity:1;stroke:#080000;stroke-width:3.50234842;stroke-miterlimit:4;stroke-dasharray:none;stroke-opacity:1">
      <path
         id="path3354"
         d="M 268.57143,835.6566 L 268.57143,1821.1259"
         style="fill:#030000;fill-opacity:1;fill-rule:evenodd;stroke:#080000;stroke-width:3.50234842;stroke-linecap:butt;stroke-linejoin:miter;stroke-miterlimit:4;stroke-dasharray:none;stroke-opacity:1" />
      <path
         style="fill:#030000;fill-opacity:1;fill-rule:evenodd;stroke:#080000;stroke-width:3.50234842;stroke-linecap:butt;stroke-linejoin:miter;stroke-miterlimit:4;stroke-dasharray:none;stroke-opacity:1"
         d="M 761.30608,1328.3912 L -224.16322,1328.3912"
         id="path3356" />
    </g>
    <g
       id="g3358"
       transform="matrix(0.7956928,0.7164449,-0.7164449,0.7956928,1130.6657,-698.83427)"
       style="fill:#030000;fill-opacity:1;stroke:#080000;stroke-width:3.50234818;stroke-miterlimit:4;stroke-dasharray:none;stroke-opacity:1">
      <path
         style="fill:#030000;fill-opacity:1;fill-rule:evenodd;stroke:#080000;stroke-width:3.50234818;stroke-linecap:butt;stroke-linejoin:miter;stroke-miterlimit:4;stroke-dasharray:none;stroke-opacity:1"
         d="M 268.57143,835.6566 L 268.57143,1821.1259"
         id="path3360" />
      <path
         id="path3362"
         d="M 761.30608,1328.3912 L -224.16322,1328.3912"
         style="fill:#030000;fill-opacity:1;fill-rule:evenodd;stroke:#080000;stroke-width:3.50234818;stroke-linecap:butt;stroke-linejoin:miter;stroke-miterlimit:4;stroke-dasharray:none;stroke-opacity:1" />
    </g>
  </g>
  <g
     inkscape:groupmode="layer"
     id="layer3"
     inkscape:label="clears"
     style="display:inline"
     sodipodi:insensitive="true">
    <path
       style="fill:#ffffef;fill-opacity:0.99514561"
       d="M 392.59333,50.488096 C 98.2731,50.488096 -118.85962,270.53159 -117.51192,556.27721 C -116.08335,860.59744 162.55881,1069.2396 392.59333,1066.3824 C 628.3235,1063.4177 896.24243,883.45315 892.66815,556.27721 C 888.84435,206.26065 756.91357,50.488086 392.59333,50.488096 z M 392.59333,295.74117 C 533.25718,295.74118 647.41508,409.89907 647.41508,550.56292 C 647.4151,691.22674 533.25718,805.41508 392.59333,805.41508 C 251.92951,805.41508 137.77161,691.22675 137.77161,550.56292 C 137.7716,409.89906 251.9295,295.74117 392.59333,295.74117 z"
       id="path3514"
       sodipodi:nodetypes="csssccsssc" />
    <path
       transform="matrix(0.9137217,0,0,0.9137217,-25.768316,76.546083)"
       style="fill:#ffffe8;fill-opacity:1;display:inline"
       d="M 727.14285,518.79077 A 269.28571,269.28571 0 1 1 188.57144,518.79077 A 269.28571,269.28571 0 1 1 727.14285,518.79077 z"
       sodipodi:ry="269.28571"
       sodipodi:rx="269.28571"
       sodipodi:cy="518.79077"
       sodipodi:cx="457.85715"
       id="path3518"
       sodipodi:type="arc" />
  </g>
  <g
     inkscape:groupmode="layer"
     id="layer5"
     inkscape:label="seconds_1"
     style="display:none"
     sodipodi:insensitive="true">
    <g
       id="g3530"
       transform="matrix(0.1464198,-6.51903e-2,6.51903e-2,0.1464198,267.97153,528.7849)"
       style="fill:#030000;fill-opacity:1;stroke:#080000;stroke-width:2.33970785;stroke-miterlimit:4;stroke-dasharray:none;stroke-opacity:1;display:inline">
      <g
         id="g3532"
         style="fill:#030000;fill-opacity:1;stroke:#080000;stroke-width:2.33970785;stroke-miterlimit:4;stroke-dasharray:none;stroke-opacity:1">
        <path
           style="fill:#030000;fill-opacity:1;fill-rule:evenodd;stroke:#080000;stroke-width:2.33970785;stroke-linecap:butt;stroke-linejoin:miter;stroke-miterlimit:4;stroke-dasharray:none;stroke-opacity:1"
           d="M 268.57143,835.6566 L 268.57143,1821.1259"
           id="path3534" />
        <path
           id="path3536"
           d="M 761.30608,1328.3912 L -224.16322,1328.3912"
           style="fill:#030000;fill-opacity:1;fill-rule:evenodd;stroke:#080000;stroke-width:2.33970785;stroke-linecap:butt;stroke-linejoin:miter;stroke-miterlimit:4;stroke-dasharray:none;stroke-opacity:1" />
      </g>
      <g
         transform="matrix(0.8660254,0.5,-0.5,0.8660254,700.17737,43.684966)"
         id="g3538"
         style="fill:#030000;fill-opacity:1;stroke:#080000;stroke-width:2.33970785;stroke-miterlimit:4;stroke-dasharray:none;stroke-opacity:1">
        <path
           id="path3540"
           d="M 268.57143,835.6566 L 268.57143,1821.1259"
           style="fill:#030000;fill-opacity:1;fill-rule:evenodd;stroke:#080000;stroke-width:2.33970785;stroke-linecap:butt;stroke-linejoin:miter;stroke-miterlimit:4;stroke-dasharray:none;stroke-opacity:1" />
        <path
           style="fill:#030000;fill-opacity:1;fill-rule:evenodd;stroke:#080000;stroke-width:2.33970785;stroke-linecap:butt;stroke-linejoin:miter;stroke-miterlimit:4;stroke-dasharray:none;stroke-opacity:1"
           d="M 761.30608,1328.3912 L -224.16322,1328.3912"
           id="path3542" />
      </g>
      <g
         id="g3544"
         transform="matrix(0.5,0.8660254,-0.8660254,0.5,1284.7063,431.60593)"
         style="fill:#030000;fill-opacity:1;stroke:#080000;stroke-width:2.33970785;stroke-miterlimit:4;stroke-dasharray:none;stroke-opacity:1">
        <path
           style="fill:#030000;fill-opacity:1;fill-rule:evenodd;stroke:#080000;stroke-width:2.33970785;stroke-linecap:butt;stroke-linejoin:miter;stroke-miterlimit:4;stroke-dasharray:none;stroke-opacity:1"
           d="M 268.57143,835.6566 L 268.57143,1821.1259"
           id="path3546" />
        <path
           id="path3548"
           d="M 761.30608,1328.3912 L -224.16322,1328.3912"
           style="fill:#030000;fill-opacity:1;fill-rule:evenodd;stroke:#080000;stroke-width:2.33970785;stroke-linecap:butt;stroke-linejoin:miter;stroke-miterlimit:4;stroke-dasharray:none;stroke-opacity:1" />
      </g>
    </g>
    <g
       id="g3550"
       transform="matrix(0.1602765,0,0,0.1602765,350.84826,492.86962)"
       style="fill:#030000;fill-opacity:1;stroke:#080000;stroke-width:2.33970666;stroke-miterlimit:4;stroke-dasharray:none;stroke-opacity:1;display:inline">
      <g
         id="g3552"
         style="fill:#030000;fill-opacity:1;stroke:#080000;stroke-width:2.33970666;stroke-miterlimit:4;stroke-dasharray:none;stroke-opacity:1">
        <path
           style="fill:#030000;fill-opacity:1;fill-rule:evenodd;stroke:#080000;stroke-width:2.33970666;stroke-linecap:butt;stroke-linejoin:miter;stroke-miterlimit:4;stroke-dasharray:none;stroke-opacity:1"
           d="M 268.57143,835.6566 L 268.57143,1821.1259"
           id="path3554" />
        <path
           id="path3556"
           d="M 761.30608,1328.3912 L -224.16322,1328.3912"
           style="fill:#030000;fill-opacity:1;fill-rule:evenodd;stroke:#080000;stroke-width:2.33970666;stroke-linecap:butt;stroke-linejoin:miter;stroke-miterlimit:4;stroke-dasharray:none;stroke-opacity:1" />
      </g>
      <g
         transform="matrix(0.8660254,0.5,-0.5,0.8660254,700.17737,43.684966)"
         id="g3558"
         style="fill:#030000;fill-opacity:1;stroke:#080000;stroke-width:2.33970666;stroke-miterlimit:4;stroke-dasharray:none;stroke-opacity:1">
        <path
           id="path3560"
           d="M 268.57143,835.6566 L 268.57143,1821.1259"
           style="fill:#030000;fill-opacity:1;fill-rule:evenodd;stroke:#080000;stroke-width:2.33970666;stroke-linecap:butt;stroke-linejoin:miter;stroke-miterlimit:4;stroke-dasharray:none;stroke-opacity:1" />
        <path
           style="fill:#030000;fill-opacity:1;fill-rule:evenodd;stroke:#080000;stroke-width:2.33970666;stroke-linecap:butt;stroke-linejoin:miter;stroke-miterlimit:4;stroke-dasharray:none;stroke-opacity:1"
           d="M 761.30608,1328.3912 L -224.16322,1328.3912"
           id="path3562" />
      </g>
      <g
         id="g3564"
         transform="matrix(0.5,0.8660254,-0.8660254,0.5,1284.7063,431.60593)"
         style="fill:#030000;fill-opacity:1;stroke:#080000;stroke-width:2.33970666;stroke-miterlimit:4;stroke-dasharray:none;stroke-opacity:1">
        <path
           style="fill:#030000;fill-opacity:1;fill-rule:evenodd;stroke:#080000;stroke-width:2.33970666;stroke-linecap:butt;stroke-linejoin:miter;stroke-miterlimit:4;stroke-dasharray:none;stroke-opacity:1"
           d="M 268.57143,835.6566 L 268.57143,1821.1259"
           id="path3566" />
        <path
           id="path3568"
           d="M 761.30608,1328.3912 L -224.16322,1328.3912"
           style="fill:#030000;fill-opacity:1;fill-rule:evenodd;stroke:#080000;stroke-width:2.33970666;stroke-linecap:butt;stroke-linejoin:miter;stroke-miterlimit:4;stroke-dasharray:none;stroke-opacity:1" />
      </g>
    </g>
    <g
       style="fill:#030000;fill-opacity:1;stroke:#080000;stroke-width:2.33970809;stroke-miterlimit:4;stroke-dasharray:none;stroke-opacity:1;display:inline"
       transform="matrix(0.1593984,-1.6753457e-2,1.6753457e-2,0.1593984,328.82893,498.53546)"
       id="g3570">
      <g
         style="fill:#030000;fill-opacity:1;stroke:#080000;stroke-width:2.33970809;stroke-miterlimit:4;stroke-dasharray:none;stroke-opacity:1"
         id="g3572">
        <path
           id="path3574"
           d="M 268.57143,835.6566 L 268.57143,1821.1259"
           style="fill:#030000;fill-opacity:1;fill-rule:evenodd;stroke:#080000;stroke-width:2.33970809;stroke-linecap:butt;stroke-linejoin:miter;stroke-miterlimit:4;stroke-dasharray:none;stroke-opacity:1" />
        <path
           style="fill:#030000;fill-opacity:1;fill-rule:evenodd;stroke:#080000;stroke-width:2.33970809;stroke-linecap:butt;stroke-linejoin:miter;stroke-miterlimit:4;stroke-dasharray:none;stroke-opacity:1"
           d="M 761.30608,1328.3912 L -224.16322,1328.3912"
           id="path3576" />
      </g>
      <g
         style="fill:#030000;fill-opacity:1;stroke:#080000;stroke-width:2.33970809;stroke-miterlimit:4;stroke-dasharray:none;stroke-opacity:1"
         id="g3578"
         transform="matrix(0.8660254,0.5,-0.5,0.8660254,700.17737,43.684966)">
        <path
           style="fill:#030000;fill-opacity:1;fill-rule:evenodd;stroke:#080000;stroke-width:2.33970809;stroke-linecap:butt;stroke-linejoin:miter;stroke-miterlimit:4;stroke-dasharray:none;stroke-opacity:1"
           d="M 268.57143,835.6566 L 268.57143,1821.1259"
           id="path3580" />
        <path
           id="path3582"
           d="M 761.30608,1328.3912 L -224.16322,1328.3912"
           style="fill:#030000;fill-opacity:1;fill-rule:evenodd;stroke:#080000;stroke-width:2.33970809;stroke-linecap:butt;stroke-linejoin:miter;stroke-miterlimit:4;stroke-dasharray:none;stroke-opacity:1" />
      </g>
      <g
         style="fill:#030000;fill-opacity:1;stroke:#080000;stroke-width:2.33970809;stroke-miterlimit:4;stroke-dasharray:none;stroke-opacity:1"
         transform="matrix(0.5,0.8660254,-0.8660254,0.5,1284.7063,431.60593)"
         id="g3584">
        <path
           id="path3586"
           d="M 268.57143,835.6566 L 268.57143,1821.1259"
           style="fill:#030000;fill-opacity:1;fill-rule:evenodd;stroke:#080000;stroke-width:2.33970809;stroke-linecap:butt;stroke-linejoin:miter;stroke-miterlimit:4;stroke-dasharray:none;stroke-opacity:1" />
        <path
           style="fill:#030000;fill-opacity:1;fill-rule:evenodd;stroke:#080000;stroke-width:2.33970809;stroke-linecap:butt;stroke-linejoin:miter;stroke-miterlimit:4;stroke-dasharray:none;stroke-opacity:1"
           d="M 761.30608,1328.3912 L -224.16322,1328.3912"
           id="path3588" />
      </g>
    </g>
    <g
       id="g3590"
       transform="matrix(0.156774,-3.332335e-2,3.332335e-2,0.156774,307.52247,506.47191)"
       style="fill:#030000;fill-opacity:1;stroke:#080000;stroke-width:2.33970785;stroke-miterlimit:4;stroke-dasharray:none;stroke-opacity:1;display:inline">
      <g
         id="g3592"
         style="fill:#030000;fill-opacity:1;stroke:#080000;stroke-width:2.33970785;stroke-miterlimit:4;stroke-dasharray:none;stroke-opacity:1">
        <path
           style="fill:#030000;fill-opacity:1;fill-rule:evenodd;stroke:#080000;stroke-width:2.33970785;stroke-linecap:butt;stroke-linejoin:miter;stroke-miterlimit:4;stroke-dasharray:none;stroke-opacity:1"
           d="M 268.57143,835.6566 L 268.57143,1821.1259"
           id="path3594" />
        <path
           id="path3596"
           d="M 761.30608,1328.3912 L -224.16322,1328.3912"
           style="fill:#030000;fill-opacity:1;fill-rule:evenodd;stroke:#080000;stroke-width:2.33970785;stroke-linecap:butt;stroke-linejoin:miter;stroke-miterlimit:4;stroke-dasharray:none;stroke-opacity:1" />
      </g>
      <g
         transform="matrix(0.8660254,0.5,-0.5,0.8660254,700.17737,43.684966)"
         id="g3598"
         style="fill:#030000;fill-opacity:1;stroke:#080000;stroke-width:2.33970785;stroke-miterlimit:4;stroke-dasharray:none;stroke-opacity:1">
        <path
           id="path3600"
           d="M 268.57143,835.6566 L 268.57143,1821.1259"
           style="fill:#030000;fill-opacity:1;fill-rule:evenodd;stroke:#080000;stroke-width:2.33970785;stroke-linecap:butt;stroke-linejoin:miter;stroke-miterlimit:4;stroke-dasharray:none;stroke-opacity:1" />
        <path
           style="fill:#030000;fill-opacity:1;fill-rule:evenodd;stroke:#080000;stroke-width:2.33970785;stroke-linecap:butt;stroke-linejoin:miter;stroke-miterlimit:4;stroke-dasharray:none;stroke-opacity:1"
           d="M 761.30608,1328.3912 L -224.16322,1328.3912"
           id="path3602" />
      </g>
      <g
         id="g3604"
         transform="matrix(0.5,0.8660254,-0.8660254,0.5,1284.7063,431.60593)"
         style="fill:#030000;fill-opacity:1;stroke:#080000;stroke-width:2.33970785;stroke-miterlimit:4;stroke-dasharray:none;stroke-opacity:1">
        <path
           style="fill:#030000;fill-opacity:1;fill-rule:evenodd;stroke:#080000;stroke-width:2.33970785;stroke-linecap:butt;stroke-linejoin:miter;stroke-miterlimit:4;stroke-dasharray:none;stroke-opacity:1"
           d="M 268.57143,835.6566 L 268.57143,1821.1259"
           id="path3606" />
        <path
           id="path3608"
           d="M 761.30608,1328.3912 L -224.16322,1328.3912"
           style="fill:#030000;fill-opacity:1;fill-rule:evenodd;stroke:#080000;stroke-width:2.33970785;stroke-linecap:butt;stroke-linejoin:miter;stroke-miterlimit:4;stroke-dasharray:none;stroke-opacity:1" />
      </g>
    </g>
    <g
       style="fill:#030000;fill-opacity:1;stroke:#080000;stroke-width:2.3397069;stroke-miterlimit:4;stroke-dasharray:none;stroke-opacity:1;display:inline"
       transform="matrix(0.152432,-4.9528149e-2,4.9528149e-2,0.152432,287.16231,516.59202)"
       id="g3610">
      <g
         style="fill:#030000;fill-opacity:1;stroke:#080000;stroke-width:2.3397069;stroke-miterlimit:4;stroke-dasharray:none;stroke-opacity:1"
         id="g3612">
        <path
           id="path3614"
           d="M 268.57143,835.6566 L 268.57143,1821.1259"
           style="fill:#030000;fill-opacity:1;fill-rule:evenodd;stroke:#080000;stroke-width:2.3397069;stroke-linecap:butt;stroke-linejoin:miter;stroke-miterlimit:4;stroke-dasharray:none;stroke-opacity:1" />
        <path
           style="fill:#030000;fill-opacity:1;fill-rule:evenodd;stroke:#080000;stroke-width:2.3397069;stroke-linecap:butt;stroke-linejoin:miter;stroke-miterlimit:4;stroke-dasharray:none;stroke-opacity:1"
           d="M 761.30608,1328.3912 L -224.16322,1328.3912"
           id="path3616" />
      </g>
      <g
         style="fill:#030000;fill-opacity:1;stroke:#080000;stroke-width:2.3397069;stroke-miterlimit:4;stroke-dasharray:none;stroke-opacity:1"
         id="g3618"
         transform="matrix(0.8660254,0.5,-0.5,0.8660254,700.17737,43.684966)">
        <path
           style="fill:#030000;fill-opacity:1;fill-rule:evenodd;stroke:#080000;stroke-width:2.3397069;stroke-linecap:butt;stroke-linejoin:miter;stroke-miterlimit:4;stroke-dasharray:none;stroke-opacity:1"
           d="M 268.57143,835.6566 L 268.57143,1821.1259"
           id="path3620" />
        <path
           id="path3622"
           d="M 761.30608,1328.3912 L -224.16322,1328.3912"
           style="fill:#030000;fill-opacity:1;fill-rule:evenodd;stroke:#080000;stroke-width:2.3397069;stroke-linecap:butt;stroke-linejoin:miter;stroke-miterlimit:4;stroke-dasharray:none;stroke-opacity:1" />
      </g>
      <g
         style="fill:#030000;fill-opacity:1;stroke:#080000;stroke-width:2.3397069;stroke-miterlimit:4;stroke-dasharray:none;stroke-opacity:1"
         transform="matrix(0.5,0.8660254,-0.8660254,0.5,1284.7063,431.60593)"
         id="g3624">
        <path
           id="path3626"
           d="M 268.57143,835.6566 L 268.57143,1821.1259"
           style="fill:#030000;fill-opacity:1;fill-rule:evenodd;stroke:#080000;stroke-width:2.3397069;stroke-linecap:butt;stroke-linejoin:miter;stroke-miterlimit:4;stroke-dasharray:none;stroke-opacity:1" />
        <path
           style="fill:#030000;fill-opacity:1;fill-rule:evenodd;stroke:#080000;stroke-width:2.3397069;stroke-linecap:butt;stroke-linejoin:miter;stroke-miterlimit:4;stroke-dasharray:none;stroke-opacity:1"
           d="M 761.30608,1328.3912 L -224.16322,1328.3912"
           id="path3628" />
      </g>
    </g>
  </g>
  <g
     inkscape:groupmode="layer"
     id="layer6"
     inkscape:label="seconds_2"
     style="display:none"
     sodipodi:insensitive="true">
    <path
       style="fill:#ffffe8;fill-opacity:0.99514561;display:inline"
       d="M 396.08232,619.99834 C 159.00957,647.14119 255.32361,658.75668 255.32361,690.11514 C 255.32361,721.4736 364.88512,790.70705 396.24359,790.70705 C 427.60205,790.70705 499.73515,735.38172 499.73515,704.02326 C 499.73515,672.66479 608.86936,651.42691 396.08232,619.99834 z M 394.56478,656.55083 C 419.8688,656.55084 440.40466,677.0867 440.40466,702.39072 C 440.40466,727.69473 419.8688,748.23607 394.56478,748.23607 C 369.26077,748.23607 348.7249,727.69473 348.7249,702.39072 C 348.7249,677.08669 369.26076,656.55083 394.56478,656.55083 z"
       id="path3631"
       sodipodi:nodetypes="csssccsssc" />
    <path
       transform="matrix(0.1574194,0,0,0.1574194,322.48754,620.72549)"
       style="fill:#ffffe8;fill-opacity:1;display:inline"
       d="M 727.14285,518.79077 A 269.28571,269.28571 0 1 1 188.57144,518.79077 A 269.28571,269.28571 0 1 1 727.14285,518.79077 z"
       sodipodi:ry="269.28571"
       sodipodi:rx="269.28571"
       sodipodi:cy="518.79077"
       sodipodi:cx="457.85715"
       id="path3633"
       sodipodi:type="arc" />
  </g>
  <g
     inkscape:groupmode="layer"
     id="layer4"
     inkscape:label="numbers1"
     style="display:inline"
     sodipodi:insensitive="true">
    <text
       xml:space="preserve"
       style="font-size:40px;font-style:normal;font-variant:normal;font-weight:normal;font-stretch:normal;fill:#000000;fill-opacity:1;stroke:none;stroke-width:1px;stroke-linecap:butt;stroke-linejoin:miter;stroke-opacity:1;display:inline;font-family:Nimbus Roman No9 L;-inkscape-font-specification:Nimbus Roman No9 L"
       x="364.8978"
       y="339.0054"
       id="text2435"><tspan
         sodipodi:role="line"
         id="tspan2437"
         x="364.8978"
         y="339.0054">XII</tspan></text>
    <text
       xml:space="preserve"
       style="font-size:40px;font-style:normal;font-variant:normal;font-weight:normal;font-stretch:normal;fill:#000000;fill-opacity:1;stroke:none;stroke-width:1px;stroke-linecap:butt;stroke-linejoin:miter;stroke-opacity:1;display:inline;font-family:Nimbus Roman No9 L;-inkscape-font-specification:Nimbus Roman No9 L"
       x="531.30206"
       y="-605.34692"
       id="text2399"
       transform="matrix(0,1,-1,0,0,0)"><tspan
         sodipodi:role="line"
         id="tspan2401"
         x="531.30206"
         y="-605.34692">III</tspan></text>
    <text
       xml:space="preserve"
       style="font-size:40px;font-style:normal;font-variant:normal;font-weight:normal;font-stretch:normal;fill:#000000;fill-opacity:1;stroke:none;stroke-width:1px;stroke-linecap:butt;stroke-linejoin:miter;stroke-opacity:1;display:inline;font-family:Nimbus Roman No9 L;-inkscape-font-specification:Nimbus Roman No9 L"
       x="262.25735"
       y="-827.71826"
       id="text2403"
       transform="matrix(-0.5,0.8660254,-0.8660254,-0.5,0,0)"><tspan
         sodipodi:role="line"
         id="tspan2405"
         x="262.25735"
         y="-827.71826">IV</tspan></text>
    <text
       xml:space="preserve"
       style="font-size:40px;font-style:normal;font-variant:normal;font-weight:normal;font-stretch:normal;fill:#000000;fill-opacity:1;stroke:none;stroke-width:1px;stroke-linecap:butt;stroke-linejoin:miter;stroke-opacity:1;display:inline;font-family:Nimbus Roman No9 L;-inkscape-font-specification:Nimbus Roman No9 L"
       x="-80.823692"
       y="-886.65143"
       id="text2407"
       transform="matrix(-0.8660254,0.5,-0.5,-0.8660254,0,0)"><tspan
         sodipodi:role="line"
         id="tspan2409"
         x="-80.823692"
         y="-886.65143">V</tspan></text>
    <text
       xml:space="preserve"
       style="font-size:40px;font-style:normal;font-variant:normal;font-weight:normal;font-stretch:normal;fill:#000000;fill-opacity:1;stroke:none;stroke-width:1px;stroke-linecap:butt;stroke-linejoin:miter;stroke-opacity:1;display:inline;font-family:Nimbus Roman No9 L;-inkscape-font-specification:Nimbus Roman No9 L"
       x="-417.32922"
       y="-763.89355"
       id="text2411"
       transform="scale(-1,-1)"><tspan
         sodipodi:role="line"
         id="tspan2413"
         x="-417.32922"
         y="-763.89355">VI</tspan></text>
    <text
       xml:space="preserve"
       style="font-size:40px;font-style:normal;font-variant:normal;font-weight:normal;font-stretch:normal;fill:#000000;fill-opacity:1;stroke:none;stroke-width:1px;stroke-linecap:butt;stroke-linejoin:miter;stroke-opacity:1;display:inline;font-family:Nimbus Roman No9 L;-inkscape-font-specification:Nimbus Roman No9 L"
       x="-646.78424"
       y="-493.21521"
       id="text2415"
       transform="matrix(-0.8660254,-0.5,0.5,-0.8660254,0,0)"><tspan
         sodipodi:role="line"
         id="tspan2417"
         x="-646.78424"
         y="-493.21521">VII</tspan></text>
    <text
       xml:space="preserve"
       style="font-size:38.82282257px;font-style:normal;font-variant:normal;font-weight:normal;font-stretch:normal;fill:#000000;fill-opacity:1;stroke:none;stroke-width:1px;stroke-linecap:butt;stroke-linejoin:miter;stroke-opacity:1;display:inline;font-family:Nimbus Roman No9 L;-inkscape-font-specification:Nimbus Roman No9 L"
       x="-709.36572"
       y="-144.44543"
       id="text2419"
       transform="matrix(-0.4982322,-0.8690982,0.8629634,-0.5017741,0,0)"><tspan
         sodipodi:role="line"
         id="tspan2421"
         x="-709.36572"
         y="-144.44543">VIII</tspan></text>
    <text
       xml:space="preserve"
       style="font-size:40px;font-style:normal;font-variant:normal;font-weight:normal;font-stretch:normal;fill:#000000;fill-opacity:1;stroke:none;stroke-width:1px;stroke-linecap:butt;stroke-linejoin:miter;stroke-opacity:1;display:inline;font-family:Nimbus Roman No9 L;-inkscape-font-specification:Nimbus Roman No9 L"
       x="-574.14655"
       y="180.01636"
       id="text2423"
       transform="matrix(0,-1,1,0,0,0)"
       inkscape:transform-center-x="-44.285714"
       inkscape:transform-center-y="21.159687"><tspan
         sodipodi:role="line"
         id="tspan2425"
         x="-574.14655"
         y="180.01636">IX</tspan></text>
    <text
       xml:space="preserve"
       style="font-size:40px;font-style:normal;font-variant:normal;font-weight:normal;font-stretch:normal;fill:#000000;fill-opacity:1;stroke:none;stroke-width:1px;stroke-linecap:butt;stroke-linejoin:miter;stroke-opacity:1;display:inline;font-family:Nimbus Roman No9 L;-inkscape-font-specification:Nimbus Roman No9 L"
       x="-297.71869"
       y="403.66718"
       id="text2427"
       transform="matrix(0.5,-0.8660254,0.8660254,0.5,0,0)"><tspan
         sodipodi:role="line"
         id="tspan2429"
         x="-297.71869"
         y="403.66718">X</tspan></text>
    <text
       xml:space="preserve"
       style="font-size:40px;font-style:normal;font-variant:normal;font-weight:normal;font-stretch:normal;fill:#000000;fill-opacity:1;stroke:none;stroke-width:1px;stroke-linecap:butt;stroke-linejoin:miter;stroke-opacity:1;display:inline;font-family:Nimbus Roman No9 L;-inkscape-font-specification:Nimbus Roman No9 L"
       x="44.216534"
       y="462.87878"
       id="text2431"
       transform="matrix(0.8660254,-0.5,0.5,0.8660254,0,0)"><tspan
         sodipodi:role="line"
         id="tspan2433"
         x="44.216534"
         y="462.87878">XI</tspan></text>
    <text
       xml:space="preserve"
       style="font-size:40px;font-style:normal;font-variant:normal;font-weight:normal;font-stretch:normal;fill:#000000;fill-opacity:1;stroke:none;stroke-width:1px;stroke-linecap:butt;stroke-linejoin:miter;stroke-opacity:1;display:inline;font-family:Nimbus Roman No9 L;-inkscape-font-specification:Nimbus Roman No9 L"
       x="660.24841"
       y="-277.47501"
       id="text2395"
       transform="matrix(0.5,0.8660254,-0.8660254,0.5,0,0)"><tspan
         sodipodi:role="line"
         id="tspan2397"
         x="660.24841"
         y="-277.47501">II</tspan></text>
    <text
       xml:space="preserve"
       style="font-size:40px;font-style:normal;font-variant:normal;font-weight:normal;font-stretch:normal;fill:#000000;fill-opacity:1;stroke:none;stroke-width:1px;stroke-linecap:butt;stroke-linejoin:miter;stroke-opacity:1;display:inline;font-family:Nimbus Roman No9 L;-inkscape-font-specification:Nimbus Roman No9 L"
       x="608.36261"
       y="67.400391"
       id="text2391"
       transform="matrix(0.8660254,0.5,-0.5,0.8660254,0,0)"><tspan
         sodipodi:role="line"
         id="tspan2393"
         x="608.36261"
         y="67.400391">I</tspan></text>
  </g>
</svg>
